21/03/2020,03:53:06,Consultando saldo de R$ 100.0;
21/03/2020,03:54:13,Depositando um valdor de R$ 43;
21/03/2020,03:54:34,Consultando saldo de R$ 143.0;
21/03/2020,03:54:52,Efetuando Saque de R$ 100.0;
21/03/2020,03:55:01,Consultando saldo de R$ 43.0;
21/03/2020,13:21:05,Consultando saldo de R$ 100.0;
